{
  "question_22": {
    "question": "Combien font 10 x 4 ?",
    "right_answer": "40",
    "answer_2": "4",
    "answer_1": "10",
    "answer_3": "20"
  },
  "question_21": {
    "question": "Combien font 0 + 0 ?",
    "right_answer": "0",
    "answer_2": "1",
    "answer_1": "100",
    "answer_3": "2"
  },
  "question_9": {
    "question": "Combien font 10 + 1 ?",
    "right_answer": "11",
    "answer_2": "2",
    "answer_1": "10",
    "answer_3": "-1"
  },
  "question_24": {
    "question": "Quelle la ligne imaginaire qui sépare la Terre en deux parties égales ?",
    "right_answer": "L'équateur",
    "answer_2": "Pôle Nord",
    "answer_1": "Cercle polaire Artique",
    "answer_3": "Pôle Sud"
  },
  "question_23": {
    "question": "Laquelle de ces villes est la capitale de l'Angleterre ?",
    "right_answer": "Londres",
    "answer_2": "Paris",
    "answer_1": "Dublin",
    "answer_3": "Madrid"
  },
  "question_26": {
    "question": "Laquelle de ces villes n'est pas Française ?",
    "right_answer": "Berlin",
    "answer_2": "Paris",
    "answer_1": "Clermont-Ferrand",
    "answer_3": "Nice"
  },
  "question_25": {
    "question": "De quel côté se lève le soleil ?",
    "right_answer": "L'Est",
    "answer_2": "L'Ouest",
    "answer_1": "Le Sud ",
    "answer_3": "Le Nord"
  },
  "question_28": {
    "question": "J'ai 20 euros. J'achète un gâteau à 7 euros et une glace à 3 euros Combien me reste-t-il ?",
    "right_answer": "10 euros",
    "answer_2": "0 euro",
    "answer_1": "8 euros",
    "answer_3": "11 euros"
  },
  "question_27": {
    "question": " Je suis la plus haute montagne de France, qui suis-je ?",
    "right_answer": "Mont-Blanc",
    "answer_2": "Mont Saint-Michel",
    "answer_1": "Les Alpes",
    "answer_3": "Mont Ventoux"
  },
  "question_40": {
    "question": "Lequel est un continent ?",
    "right_answer": "L'Asie",
    "answer_2": "La France",
    "answer_1": "La Suisse",
    "answer_3": "La Chine"
  },
  "question_20": {
    "question": "De quelle couleur est la voiture rouge ?",
    "right_answer": "Rouge",
    "answer_2": "Bleu",
    "answer_1": "Gris",
    "answer_3": "Rose"
  },
  "question_19": {
    "question": "Combien de kilogrammes font 1000 grammes  ?",
    "right_answer": "1 kilogramme",
    "answer_2": "10 kilogrammes",
    "answer_1": "2 kilogrammes",
    "answer_3": "1000 kilogrammes"
  },
  "question_18": {
    "question": "Comment s'appelle un triangle avec un angle droit ?",
    "right_answer": "Un triangle rectangle",
    "answer_2": "Un cercle",
    "answer_1": "Un losange",
    "answer_3": "Un triangle isocèle"
  },
  "question_11": {
    "question": "Combien font 20 ÷ 2 ?",
    "right_answer": "10",
    "answer_2": "4",
    "answer_1": "25",
    "answer_3": "1"
  },
  "question_33": {
    "question": "Indiquer le temps de la phrase : Dans un an, nous partirons en voyage.",
    "right_answer": "Futur simple",
    "answer_2": "Présent",
    "answer_1": "Imparfait",
    "answer_3": "Passé composé"
  },
  "question_10": {
    "question": "Combien font 6 + 8 ?",
    "right_answer": "14",
    "answer_2": "18",
    "answer_1": "20",
    "answer_3": "11"
  },
  "question_32": {
    "question": "Indiquer le temps de la phrase : Il préparait un feu.",
    "right_answer": "Imparfait",
    "answer_2": "Présent",
    "answer_1": "Futur simple",
    "answer_3": "Passé composé"
  },
  "question_13": {
    "question": "Rangez du plus petit au plus grand: 20 ; 15 ; 1 ",
    "right_answer": "1  - 15 - 20",
    "answer_2": "1  - 20 - 15",
    "answer_1": " 15 - 20 - 1",
    "answer_3": "20 - 15 - 1 "
  },
  "question_35": {
    "question": "Conjuguer le verbe manger au futur simple à la 2ème personne du pluriel ?",
    "right_answer": "Mangerez",
    "answer_2": "Mangez",
    "answer_1": "Mangera",
    "answer_3": "Manges"
  },
  "question_12": {
    "question": "Comment dire chien en anglais ?",
    "right_answer": "Dog",
    "answer_2": "Cat",
    "answer_1": "Horse",
    "answer_3": "Hello"
  },
  "question_34": {
    "question": "Indiquer le temps de la phrase : Je suis heureux d'être ici.",
    "right_answer": "Présent",
    "answer_2": "Futur simple",
    "answer_1": "Imparfait",
    "answer_3": "Passé composé"
  },
  "question_15": {
    "question": "Comment dire bonjour en anglais ?",
    "right_answer": "Hello",
    "answer_2": "Thank you",
    "answer_1": "No",
    "answer_3": "Yes"
  },
  "question_37": {
    "question": "Combien de millilitres faut-il pour faire un Litre ?",
    "right_answer": "1000 mL",
    "answer_2": "1 mL",
    "answer_1": "100 mL",
    "answer_3": "500 mL"
  },
  "question_14": {
    "question": "Combien font 33 ÷ 1 ?",
    "right_answer": "33",
    "answer_2": "1",
    "answer_1": "11",
    "answer_3": "22"
  },
  "question_36": {
    "question": "Conjuguer le verbe aller à l'imparfait à la première personne du singulier  ?",
    "right_answer": "Allais",
    "answer_2": "Alla",
    "answer_1": "Ira",
    "answer_3": "Vais"
  },
  "question_17": {
    "question": "De quoi est constitué l'espace ?",
    "right_answer": "De vide",
    "answer_2": "De voitures",
    "answer_1": "D'eau",
    "answer_3": "D'air et d'eau"
  },
  "question_39": {
    "question": "A quelle température la glace se transforme-t-elle en liquide ?",
    "right_answer": "0 °C",
    "answer_2": "10 °C",
    "answer_1": "20 °C",
    "answer_3": "-10 °C"
  },
  "question_16": {
    "question": "Quelle figure a 4 côtés égaux et un angle droit ?",
    "right_answer": "Un carré",
    "answer_2": "Un triangle",
    "answer_1": "Un cercle",
    "answer_3": "Un rectangle"
  },
  "question_38": {
    "question": "Comment s'écrit le chiffre : 1997 ?",
    "right_answer": "Mille neuf cent quatre-vingt-dix-sept",
    "answer_2": "Mille neuf cent quatre-vingt-dix",
    "answer_1": "Mille huit cent quatre-vingt-dix-sept",
    "answer_3": "Mille neuf cent vingt-sept"
  },
  "question_31": {
    "question": "Quel est le fleuve le plus long du monde ?",
    "right_answer": "L'Amazone",
    "answer_2": "Le Nil",
    "answer_1": "La Seine",
    "answer_3": "Le Rhône"
  },
  "question_30": {
    "question": "Lequel n'est pas un océan ?",
    "right_answer": "Méditerranée",
    "answer_2": "Atlantique",
    "answer_1": "Pacifique",
    "answer_3": "Océan Indien"
  },
  "question_3": {
    "question": "De quel côté de ton corps ton coeur se trouve-t- il ?",
    "right_answer": "Gauche",
    "answer_2": "Droite",
    "answer_1": "Milieu",
    "answer_3": "Dans la tête"
  },
  "question_4": {
    "question": "Quelle saison vient juste après l'automne ?",
    "right_answer": "Hiver",
    "answer_2": "Printemps",
    "answer_1": "Été",
    "answer_3": "Automne"
  },
  "question_29": {
    "question": "Lequel n'est pas un pays ?",
    "right_answer": "Europe",
    "answer_2": "France",
    "answer_1": "Espagne",
    "answer_3": "Angleterre"
  },
  "question_1": {
    "question": "Combien font 7 x 3 ?",
    "right_answer": "21",
    "answer_2": "20",
    "answer_1": "14",
    "answer_3": "0"
  },
  "question_2": {
    "question": "Combien font 9 x 2 ?",
    "right_answer": "18",
    "answer_2": "27",
    "answer_1": "30",
    "answer_3": "29"
  },
  "question_7": {
    "question": "Combien font 2 + 3 + 5 ?",
    "right_answer": "10",
    "answer_2": "2",
    "answer_1": "9",
    "answer_3": "1"
  },
  "question_8": {
    "question": "Combien font 0 x 1 x 2 ?",
    "right_answer": "0",
    "answer_2": "3",
    "answer_1": "60",
    "answer_3": "2"
  },
  "question_5": {
    "question": "Combien font 1 + 1 + 1 - 1 ?",
    "right_answer": "2",
    "answer_2": "1",
    "answer_1": "33",
    "answer_3": "0"
  },
  "question_6": {
    "question": "Combien font 30 - 20 ?",
    "right_answer": "10",
    "answer_2": "20",
    "answer_1": "30",
    "answer_3": "50"
  }
}